<svg width="106.03" height="219.62" version="1.1" viewBox="0 0 106.03 219.62" xmlns="http://www.w3.org/2000/svg">
  <polygon transform="translate(-515.85,-66.63)" points="575.85 196.62 574.91 152.13 560.23 150.71 553.13 250.58 550.38 273.68 545.51 272.36 515.85 274.26 520.27 191.59 525.32 155.61 547.41 110.81 569.5 66.63 599.16 104.5 618.72 141.73 619.35 233.24 621.88 255.33 610.52 266.05 596.63 286.25 581.59 282.16" fill="#080264" fill-opacity=".7"/>
</svg>
